lab4/result/dump.vcd
$date
	Wed Jun 29 01:29:41 2022
$end
$version
	QuestaSim Version 2021.3_1
$end
$timescale
	1ns
$end

$scope module uvm_root $end
$upscope $end

$scope module top $end

$scope module dut $end
$var wire 1 ! clk $end
$var wire 1 " init $end
$var wire 1 # wr_en $end
$var wire 1 $ raddr [7] $end
$var wire 1 % raddr [6] $end
$var wire 1 & raddr [5] $end
$var wire 1 ' raddr [4] $end
$var wire 1 ( raddr [3] $end
$var wire 1 ) raddr [2] $end
$var wire 1 * raddr [1] $end
$var wire 1 + raddr [0] $end
$var wire 1 , waddr [7] $end
$var wire 1 - waddr [6] $end
$var wire 1 . waddr [5] $end
$var wire 1 / waddr [4] $end
$var wire 1 0 waddr [3] $end
$var wire 1 1 waddr [2] $end
$var wire 1 2 waddr [1] $end
$var wire 1 3 waddr [0] $end
$var wire 1 4 data_in [7] $end
$var wire 1 5 data_in [6] $end
$var wire 1 6 data_in [5] $end
$var wire 1 7 data_in [4] $end
$var wire 1 8 data_in [3] $end
$var wire 1 9 data_in [2] $end
$var wire 1 : data_in [1] $end
$var wire 1 ; data_in [0] $end
$var reg 8 < data_out [7:0] $end
$var reg 1 = done $end
$var reg 1 > initQ $end
$var reg 16 ? cycle_ct [15:0] $end
$var reg 6 @ taps [5:0] $end
$var reg 8 A prel [7:0] $end
$var integer 32 B km $end
$var reg 8 C foundit [7:0] $end

$scope begin clock_loop $end

$scope begin init_loop $end

$scope begin loop2 $end
$upscope $end
$upscope $end
$upscope $end

$scope module dm1 $end
$var parameter 32 D W $end
$var parameter 32 E byte_count $end
$var wire 1 ! clk $end
$var wire 1 # write_en $end
$var wire 1 $ raddr [7] $end
$var wire 1 % raddr [6] $end
$var wire 1 & raddr [5] $end
$var wire 1 ' raddr [4] $end
$var wire 1 ( raddr [3] $end
$var wire 1 ) raddr [2] $end
$var wire 1 * raddr [1] $end
$var wire 1 + raddr [0] $end
$var wire 1 , waddr [7] $end
$var wire 1 - waddr [6] $end
$var wire 1 . waddr [5] $end
$var wire 1 / waddr [4] $end
$var wire 1 0 waddr [3] $end
$var wire 1 1 waddr [2] $end
$var wire 1 2 waddr [1] $end
$var wire 1 3 waddr [0] $end
$var wire 1 4 data_in [7] $end
$var wire 1 5 data_in [6] $end
$var wire 1 6 data_in [5] $end
$var wire 1 7 data_in [4] $end
$var wire 1 8 data_in [3] $end
$var wire 1 9 data_in [2] $end
$var wire 1 : data_in [1] $end
$var wire 1 ; data_in [0] $end
$var wire 1 F data_out [7] $end
$var wire 1 G data_out [6] $end
$var wire 1 H data_out [5] $end
$var wire 1 I data_out [4] $end
$var wire 1 J data_out [3] $end
$var wire 1 K data_out [2] $end
$var wire 1 L data_out [1] $end
$var wire 1 M data_out [0] $end
$upscope $end
$upscope $end
$upscope $end

$scope begin uvm_pkg $end
$var parameter 32 N UVM_HDL_MAX_WIDTH $end
$var parameter 32 O UVM_STREAMBITS $end
$var parameter 32 P UVM_RADIX $end
$var parameter 32 Q UVM_MACRO_NUMFLAGS $end
$var parameter 32 R UVM_DEFAULT $end
$var parameter 32 S UVM_ALL_ON $end
$var parameter 32 T UVM_FLAGS_ON $end
$var parameter 32 U UVM_FLAGS_OFF $end
$var parameter 32 V UVM_COPY $end
$var parameter 32 W UVM_NOCOPY $end
$var parameter 32 X UVM_COMPARE $end
$var parameter 32 Y UVM_NOCOMPARE $end
$var parameter 32 Z UVM_PRINT $end
$var parameter 32 [ UVM_NOPRINT $end
$var parameter 32 \ UVM_RECORD $end
$var parameter 32 ] UVM_NORECORD $end
$var parameter 32 ^ UVM_PACK $end
$var parameter 32 _ UVM_NOPACK $end
$var parameter 32 ` UVM_PHYSICAL $end
$var parameter 32 a UVM_ABSTRACT $end
$var parameter 32 b UVM_READONLY $end
$var parameter 32 c UVM_NODEFPRINT $end
$var parameter 32 d UVM_MACRO_EXTRAS $end
$var parameter 32 e UVM_FLAGS $end
$var parameter 32 f UVM_UNPACK $end
$var parameter 32 g UVM_CHECK_FIELDS $end
$var parameter 32 h UVM_END_DATA_EXTRA $end
$var parameter 32 i UVM_START_FUNCS $end
$var parameter 32 j UVM_SET $end
$var parameter 32 k UVM_SETINT $end
$var parameter 32 l UVM_SETOBJ $end
$var parameter 32 m UVM_SETSTR $end
$var parameter 32 n UVM_END_FUNCS $end
$var parameter 32 o UVM_STR_CRC_POLYNOMIAL $end
$var parameter 32 p UVM_STDOUT $end
$var parameter 32 q UVM_LINE_WIDTH $end
$var parameter 32 r UVM_NUM_LINES $end
$var parameter 32 s UVM_SMALL_STRING $end
$var parameter 32 t UVM_LARGE_STRING $end
$var reg 1 u uvm_start_uvm_declarations $end
$var integer 32 v uvm_global_random_seed $end
$var integer 32 w UVM_UNBOUNDED_CONNECTIONS $end

$scope function uvm_hdl_check_path $end
$var integer 32 x uvm_hdl_check_path $end
$upscope $end

$scope function uvm_hdl_deposit $end
$var integer 32 y uvm_hdl_deposit $end
$var reg 1024 z value [1023:0] $end
$upscope $end

$scope function uvm_hdl_force $end
$var integer 32 { uvm_hdl_force $end
$var reg 1024 | value [1023:0] $end
$upscope $end

$scope task uvm_hdl_force_time $end
$var reg 1024 } value [1023:0] $end
$var time 64 ~ force_time $end
$upscope $end

$scope function uvm_hdl_release_and_read $end
$var integer 32 !! uvm_hdl_release_and_read $end
$var reg 1024 "! value [1023:0] $end
$upscope $end

$scope function uvm_hdl_release $end
$var integer 32 #! uvm_hdl_release $end
$upscope $end

$scope function uvm_hdl_read $end
$var integer 32 $! uvm_hdl_read $end
$var reg 1024 %! value [1023:0] $end
$upscope $end

$scope function uvm_dpi_get_next_arg_c $end
$var integer 32 &! init $end
$upscope $end

$scope function uvm_dpi_get_tool_name_c $end
$upscope $end

$scope function uvm_dpi_get_tool_version_c $end
$upscope $end

$scope function uvm_dpi_get_next_arg $end
$var integer 32 '! init $end
$upscope $end

$scope function uvm_dpi_get_tool_name $end
$upscope $end

$scope function uvm_dpi_get_tool_version $end
$upscope $end

$scope function uvm_dpi_regcomp $end
$upscope $end

$scope function uvm_dpi_regexec $end
$var integer 32 (! uvm_dpi_regexec $end
$upscope $end

$scope function uvm_dpi_regfree $end
$upscope $end

$scope function uvm_re_match $end
$var integer 32 )! uvm_re_match $end
$upscope $end

$scope function uvm_dump_re_cache $end
$upscope $end

$scope function uvm_glob_to_re $end
$upscope $end

$scope function uvm_revision_string $end
$upscope $end

$scope function uvm_radix_to_string $end
$var integer 32 *! radix $end
$upscope $end

$scope function uvm_instance_scope $end
$var reg 8 +! c [7:0] $end
$var integer 32 ,! pos $end
$upscope $end

$scope function uvm_oneway_hash $end
$var integer 32 -! uvm_oneway_hash $end
$var integer 32 .! seed $end
$var reg 1 /! msb $end
$var reg 8 0! current_byte [7:0] $end
$var reg 32 1! crc1 [31:0] $end
$upscope $end

$scope function uvm_create_random_seed $end
$var integer 32 2! uvm_create_random_seed $end
$upscope $end

$scope function uvm_object_value_str $end
$upscope $end

$scope function uvm_leaf_scope $end
$var reg 8 3! scope_separator [7:0] $end
$var reg 8 4! bracket_match [7:0] $end
$var integer 32 5! pos $end
$var integer 32 6! bmatches $end
$upscope $end

$scope function uvm_bitstream_to_string $end
$var reg 4096 7! value [4095:0] $end
$var integer 32 8! size $end
$var integer 32 9! radix $end
$upscope $end

$scope function uvm_integral_to_string $end
$var reg 64 :! value [63:0] $end
$var integer 32 ;! size $end
$var integer 32 <! radix $end
$upscope $end

$scope function uvm_vector_to_string $end
$var reg 4096 =! value [4095:0] $end
$var integer 32 >! size $end
$var integer 32 ?! radix $end
$upscope $end

$scope function uvm_get_array_index_int $end
$var integer 32 @! uvm_get_array_index_int $end
$var reg 1 A! is_wildcard $end
$var integer 32 B! i $end
$upscope $end

$scope function uvm_get_array_index_string $end
$var reg 1 C! is_wildcard $end
$var integer 32 D! i $end
$upscope $end

$scope function uvm_is_array $end
$var reg 1 E! uvm_is_array $end
$upscope $end

$scope function uvm_has_wildcard $end
$upscope $end

$scope function m_uvm_string_queue_join $end
$upscope $end

$scope task run_test $end
$upscope $end

$scope function global_stop_request $end
$upscope $end

$scope function set_global_timeout $end
$var time 64 F! timeout $end
$var reg 1 G! overridable $end
$upscope $end

$scope function set_global_stop_timeout $end
$var time 64 H! timeout $end
$upscope $end

$scope function uvm_get_report_object $end
$upscope $end

$scope function uvm_report_enabled $end
$var integer 32 I! uvm_report_enabled $end
$var integer 32 J! verbosity $end
$var reg 2 K! severity [1:0] $end
$upscope $end

$scope function uvm_report $end
$var reg 2 L! severity [1:0] $end
$var integer 32 M! verbosity $end
$var integer 32 N! line $end
$var reg 1 O! report_enabled_checked $end
$upscope $end

$scope function m__uvm_report_dpi $end
$var integer 32 P! severity $end
$var integer 32 Q! verbosity $end
$var integer 32 R! line $end
$upscope $end

$scope function uvm_report_info $end
$var integer 32 S! verbosity $end
$var integer 32 T! line $end
$var reg 1 U! report_enabled_checked $end
$upscope $end

$scope function uvm_report_warning $end
$var integer 32 V! verbosity $end
$var integer 32 W! line $end
$var reg 1 X! report_enabled_checked $end
$upscope $end

$scope function uvm_report_error $end
$var integer 32 Y! verbosity $end
$var integer 32 Z! line $end
$var reg 1 [! report_enabled_checked $end
$upscope $end

$scope function uvm_report_fatal $end
$var integer 32 \! verbosity $end
$var integer 32 ]! line $end
$var reg 1 ^! report_enabled_checked $end
$upscope $end

$scope function uvm_process_report_message $end
$upscope $end

$scope function uvm_string_to_severity $end
$var reg 1 _! uvm_string_to_severity $end
$var reg 2 `! sev [1:0] $end
$upscope $end

$scope function uvm_string_to_action $end
$upscope $end

$scope function set_config_int $end
$var reg 4096 a! value [4095:0] $end
$upscope $end

$scope function set_config_object $end
$var reg 1 b! clone $end
$upscope $end

$scope function set_config_string $end
$upscope $end

$scope function uvm_is_match $end
$var reg 1 c! uvm_is_match $end
$upscope $end

$scope function uvm_string_to_bits $end
$var reg 115200 d! uvm_string_to_bits [115199:0] $end
$upscope $end

$scope function uvm_bits_to_string $end
$var reg 115200 e! str [115199:0] $end
$upscope $end

$scope task uvm_wait_for_nba_region $end
$var integer 32 f! nba $end
$var integer 32 g! next_nba $end
$upscope $end

$scope function uvm_split_string $end
$upscope $end

$scope function uvm_hdl_concat2string $end
$upscope $end
$upscope $end

$scope begin decryptor_pkg $end
$upscope $end

$scope begin questa_uvm_pkg $end
$upscope $end

$scope begin std $end
$upscope $end
$enddefinitions $end
#0
$dumpvars
0A!
0C!
0E!
0_!
b0 `!
bx d!
bx e!
bx z
bx |
bx }
bx "!
bx %!
1u
1/!
b1111000 0!
b10110011110110111101011100111001 1!
bx 7!
b10 :!
bx =!
0G!
b0 K!
b0 L!
0O!
1U!
0X!
0[!
0^!
bx a!
0b!
0c!
bx <
0=
0>
b0 ?
bx @
bx A
bx C
b10000000000 N
b1000000000000 O
b1111000000000000000000000000 P
b10001 Q
b10101010101 R
b101010101 S
b101010101 T
b0 U
b1 V
b10 W
b100 X
b1000 Y
b10000 Z
b100000 [
b1000000 \
b10000000 ]
b100000000 ^
b1000000000 _
b10000000000000 `
b100000000000000 a
b1000000000000000 b
b10000000000000000 c
b100000000000000000 d
b100000000000000001 e
b100000000000000010 f
b100000000000000011 g
b100000000000000100 h
b100000000000000101 i
b100000000000000110 j
b100000000000000110 k
b100000000000000111 l
b100000000000001000 m
b100000000000001000 n
b100110000010001110110110110 o
b1 p
b1111000 q
b1111000 r
b1110111111 s
b11100000111111111 t
b1000 D
b100000000 E
b0 *!
b101110 3!
b0 4!
b101 5!
b11111111111111111111111111111111 6!
b0 @!
b0 B!
b0 D!
b0 x
b0 y
b0 {
b0 !!
b0 #!
b0 $!
b0 &!
b0 '!
b0 (!
b0 )!
b10101111111110001010110000110 v
b101110 +!
b111 ,!
b11011100001001110011100111010010 -!
b10101111111110001010110000110 .!
b100011010110001010001011101100 2!
b0 8!
b0 9!
b100000 ;!
b10000000000000000000000000 <!
b0 >!
b0 ?!
b0 I!
b111110100 J!
b0 M!
b0 N!
b0 P!
b0 Q!
b0 R!
b11001000 S!
b100010110 T!
b0 V!
b0 W!
b0 Y!
b0 Z!
b0 \!
b0 ]!
b100100 f!
b100100 g!
b11111111111111111111111111111111 w
b0 B
bx ~
bx F!
bx H!
x;
x:
x9
x8
x7
x6
x5
x4
x3
x2
x1
x0
x/
x.
x-
x,
x+
x*
x)
x(
x'
x&
x%
x$
0#
1"
0!
xM
xL
xK
xJ
xI
xH
xG
xF
$end
#5
1!
1>
#10
0!
#15
1!
#20
0!
#25
1!
#30
0!
#35
1!
#40
0!
#45
1!
#50
0!
#55
1!
1#
0;
0:
09
08
17
06
15
04
03
02
01
00
0/
0.
1-
0,
#60
0!
#65
1!
1;
07
13
#70
0!
#75
1!
0;
1:
16
03
12
#80
0!
#85
1!
1;
0:
19
13
#90
0!
#95
1!
1:
09
18
03
02
11
#100
0!
#105
1!
19
08
17
13
#110
0!
#115
1!
0;
18
07
06
03
12
#120
0!
#125
1!
0:
17
16
13
#130
0!
#135
1!
09
06
03
02
01
10
#140
0!
#145
1!
1;
08
13
#150
0!
#155
1!
1:
07
03
12
#160
0!
#165
1!
0:
19
18
16
13
#170
0!
#175
1!
0;
1:
09
17
06
03
02
11
#180
0!
#185
1!
1;
0:
19
08
07
13
#190
0!
#195
1!
1:
16
03
12
#200
0!
#205
1!
0:
09
18
17
13
#210
0!
#215
1!
0;
1:
03
02
01
00
1/
#220
0!
#225
1!
08
13
#230
0!
#235
1!
1;
0:
18
03
12
#240
0!
#245
1!
0;
06
13
#250
0!
#255
1!
19
08
07
03
02
11
#260
0!
#265
1!
1;
1:
16
13
#270
0!
#275
1!
0;
0:
18
17
06
03
12
#280
0!
#285
1!
1:
09
08
16
13
#290
0!
#295
1!
1;
0:
19
18
06
03
02
01
10
#300
0!
#305
1!
09
07
16
13
#310
0!
#315
1!
03
12
#320
0!
#325
1!
19
08
17
13
#330
0!
#335
1!
1:
06
03
02
11
#340
0!
#345
1!
0:
09
18
07
13
#350
0!
#355
1!
1:
08
16
03
12
#360
0!
#365
1!
0:
19
06
13
#370
0!
#375
1!
0;
17
03
02
01
00
0/
1.
#380
0!
#385
1!
07
13
#390
0!
#395
1!
1;
09
17
16
03
12
#400
0!
#405
1!
0;
19
13
#410
0!
#415
1!
1;
1:
18
07
06
03
02
11
#420
0!
#425
1!
0;
08
13
#430
0!
#435
1!
1;
0:
09
17
16
03
12
#440
0!
#445
1!
0;
1:
19
07
06
13
#450
0!
#455
1!
1;
09
18
03
02
01
10
#460
0!
#465
1!
0:
17
13
#470
0!
#475
1!
1:
19
08
07
16
03
12
#480
0!
#485
1!
18
13
#490
0!
#495
1!
17
03
02
11
#500
0!
#505
1!
0;
06
13
#510
0!
#515
1!
1;
0:
03
12
#520
0!
#525
1!
1:
09
13
#530
0!
#535
1!
19
08
03
02
01
00
1/
#540
0!
#545
1!
18
07
13
#550
0!
#555
1!
0;
17
16
03
12
#560
0!
#565
1!
0:
06
13
#570
0!
#575
1!
1;
09
03
02
11
#580
0!
#585
1!
1:
08
13
#590
0!
#595
1!
19
07
03
12
#600
0!
#605
1!
0;
18
16
13
#610
0!
#615
1!
1;
0:
17
03
02
01
10
#620
0!
#625
1!
0;
1:
09
06
13
#630
0!
#635
1!
1;
0:
19
08
03
12
#640
0!
#645
1!
1:
09
18
07
13
#650
0!
#655
1!
0;
19
08
17
16
03
02
11
#660
0!
#665
1!
0:
18
07
06
13
#670
0!
#675
1!
09
17
16
03
12
#680
0!
#685
1!
08
06
13
#690
0!
#695
1!
0#
#700
0!
#705
1!
0"
#710
0!
#715
1!
b10 C
0>
b1 ?
#720
0!
#725
b1 B
b10 B
b11 B
b100 B
b101 B
b110 B
b111 B
b1000 B
b1001 B
b1010 B
b1011 B
1!
b10 ?
#730
0!
#735
1!
b11 ?
#740
0!
#745
1!
b100 ?
#750
0!
#755
1!
b101 ?
#760
0!
#765
1!
b110 ?
#770
0!
#775
1!
b111 ?
#780
0!
#785
1!
b1000 ?
#790
0!
#795
1!
b1001 ?
#800
0!
#805
1!
b1010 ?
#810
0!
#815
1!
b1011 ?
#820
0!
#825
1!
b1100 ?
#830
0!
#835
1!
b1101 ?
#840
0!
#845
1!
b1110 ?
#850
0!
#855
1!
b1111 ?
#860
0!
#865
1!
b10000 ?
#870
0!
#875
1!
b10001 ?
#880
0!
#885
1!
b10010 ?
#890
0!
#895
1!
b10011 ?
#900
0!
#905
1!
b10100 ?
#910
0!
#915
1!
b10101 ?
#920
0!
#925
1!
b10110 ?
#930
0!
#935
1!
b10111 ?
#940
0!
#945
1!
b11000 ?
#950
0!
#955
1!
b11001 ?
#960
0!
#965
1!
b11010 ?
#970
0!
#975
1!
b11011 ?
#980
0!
#985
1!
b11100 ?
#990
0!
#995
1!
b11101 ?
#1000
0!
#1005
1!
b11110 ?
#1010
0!
#1015
1!
b11111 ?
#1020
0!
#1025
1!
b100000 ?
#1030
0!
#1035
1!
b100001 ?
#1040
0!
#1045
1!
b100010 ?
#1050
0!
#1055
1!
b100011 ?
#1060
0!
#1065
1!
b100100 ?
#1070
0!
#1075
1!
b100101 ?
#1080
0!
#1085
1!
b100110 ?
#1090
0!
#1095
1!
b100111 ?
#1100
0!
#1105
1!
b101000 ?
#1110
0!
#1115
1!
b101001 ?
#1120
0!
#1125
1!
b101010 ?
#1130
0!
#1135
1!
b101011 ?
#1140
0!
#1145
1!
b101100 ?
#1150
0!
#1155
1!
b101101 ?
#1160
0!
#1165
1!
b101110 ?
#1170
0!
#1175
1!
b101111 ?
#1180
0!
#1185
1!
b110000 ?
#1190
0!
#1195
1!
b110001 ?
#1200
0!
#1205
1!
b110010 ?
#1210
0!
#1215
1!
b110011 ?
#1220
0!
#1225
1!
b110100 ?
#1230
0!
#1235
1!
b110101 ?
#1240
0!
#1245
1!
b110110 ?
#1250
0!
#1255
1!
b110111 ?
#1260
0!
#1265
1!
b111000 ?
#1270
0!
#1275
1!
b111001 ?
#1280
0!
#1285
1!
b111010 ?
#1290
0!
#1295
1!
b111011 ?
#1300
0!
#1305
1!
b111100 ?
#1310
0!
#1315
1!
b111101 ?
#1320
0!
#1325
1!
b111110 ?
#1330
0!
#1335
1!
b111111 ?
#1340
0!
#1345
1!
b1000000 ?
#1350
0!
#1355
1!
b1000001 ?
#1360
0!
#1365
1!
b1000010 ?
#1370
0!
#1375
1!
b1000011 ?
#1380
0!
#1385
1!
b1000100 ?
#1390
0!
#1395
1!
b1000101 ?
#1400
0!
#1405
1!
b1000110 ?
#1410
0!
#1415
1!
b1000111 ?
#1420
0!
#1425
1!
b1001000 ?
#1430
0!
#1435
1!
b1001001 ?
#1440
0!
#1445
1!
b1001010 ?
#1450
0!
#1455
1!
b1001011 ?
#1460
0!
#1465
1!
b1001100 ?
#1470
0!
#1475
1!
b1001101 ?
#1480
0!
#1485
1!
b1001110 ?
#1490
0!
#1495
1!
b1001111 ?
#1500
0!
#1505
1!
b1010000 ?
#1510
0!
#1515
1!
b1010001 ?
#1520
0!
#1525
1!
b1010010 ?
#1530
0!
#1535
1!
b1010011 ?
#1540
0!
#1545
1!
b1010100 ?
#1550
0!
#1555
1!
b1010101 ?
#1560
0!
#1565
1!
b1010110 ?
#1570
0!
#1575
1!
b1010111 ?
#1580
0!
#1585
1!
b1011000 ?
#1590
0!
#1595
1!
b1011001 ?
#1600
0!
#1605
1!
b1011010 ?
#1610
0!
#1615
1!
b1011011 ?
#1620
0!
#1625
1!
b1011100 ?
#1630
0!
#1635
1!
b1011101 ?
#1640
0!
#1645
1!
b1011110 ?
#1650
0!
#1655
1!
b1011111 ?
#1660
0!
#1665
1!
b1100000 ?
#1670
0!
#1675
1!
b1100001 ?
#1680
0!
#1685
1!
b1100010 ?
#1690
0!
#1695
1!
b1100011 ?
#1700
0!
#1705
1!
b1100100 ?
#1710
0!
#1715
1!
b1100101 ?
#1720
0!
#1725
1!
b1100110 ?
#1730
0!
#1735
1!
b1100111 ?
#1740
0!
#1745
1!
b1101000 ?
#1750
0!
#1755
1!
b1101001 ?
#1760
0!
#1765
1!
b1101010 ?
#1770
0!
#1775
1!
b1101011 ?
#1780
0!
#1785
1!
b1101100 ?
#1790
0!
#1795
1!
b1101101 ?
#1800
0!
#1805
1!
b1101110 ?
#1810
0!
#1815
1!
b1101111 ?
#1820
0!
#1825
1!
b1110000 ?
#1830
0!
#1835
1!
b1110001 ?
#1840
0!
#1845
1!
b1110010 ?
#1850
0!
#1855
1!
b1110011 ?
#1860
0!
#1865
1!
b1110100 ?
#1870
0!
#1875
1!
b1110101 ?
#1880
0!
#1885
1!
b1110110 ?
#1890
0!
#1895
1!
b1110111 ?
#1900
0!
#1905
1!
b1111000 ?
#1910
0!
#1915
1!
b1111001 ?
#1920
0!
#1925
1!
b1111010 ?
#1930
0!
#1935
1!
b1111011 ?
#1940
0!
#1945
1!
b1111100 ?
#1950
0!
#1955
1!
b1111101 ?
#1960
0!
#1965
1!
b1111110 ?
#1970
0!
#1975
1!
b1111111 ?
1=
#1980
0!
#1985
1!
b10000000 ?
0+
0*
0)
0(
0'
0&
0%
0$
0M
0L
1K
0J
1I
0H
1G
0F
b1010100 <
0=
#1990
0!
#1995
1!
b10000001 ?
#2000
0!
#2005
1!
b10000010 ?
1+
0K
1J
0I
1H
b1101000 <
#2010
0!
#2015
1!
b10000011 ?
#2020
0!
#2025
1!
b10000100 ?
0+
1*
1M
0J
b1100001 <
#2030
0!
#2035
1!
b10000101 ?
#2040
0!
#2045
1!
b10000110 ?
1+
0M
1L
1K
1J
b1101110 <
#2050
0!
#2055
1!
b10000111 ?
#2060
0!
#2065
1!
b10001000 ?
0+
0*
1)
1M
0K
b1101011 <
#2070
0!
#2075
1!
b10001001 ?
#2080
0!
#2085
1!
b10001010 ?
1+
1K
1I
0H
b1011111 <
#2090
0!
#2095
1!
b10001011 ?
#2100
0!
#2105
1!
b10001100 ?
0+
1*
0L
0K
1H
b1111001 <
#2110
0!
#2115
1!
b10001101 ?
#2120
0!
#2125
1!
b10001110 ?
1+
1L
1K
0I
b1101111 <
#2130
0!
#2135
1!
b10001111 ?
#2140
0!
#2145
1!
b10010000 ?
0+
0*
0)
1(
0L
0J
1I
b1110101 <
#2150
0!
#2155
1!
b10010001 ?
#2160
0!
#2165
1!
b10010010 ?
1+
1L
1J
0H
b1011111 <
#2170
0!
#2175
1!
b10010011 ?
#2180
0!
#2185
1!
b10010100 ?
0+
1*
0M
0L
0K
0J
b1010000 <
#2190
0!
#2195
1!
b10010101 ?
#2200
0!
#2205
1!
b10010110 ?
1+
1L
1H
b1110010 <
#2210
0!
#2215
1!
b10010111 ?
#2220
0!
#2225
1!
b10011000 ?
0+
0*
1)
1M
1K
1J
0I
b1101111 <
#2230
0!
#2235
1!
b10011001 ?
#2240
0!
#2245
1!
b10011010 ?
1+
0M
0J
b1100110 <
#2250
0!
#2255
1!
b10011011 ?
#2260
0!
#2265
1!
b10011100 ?
0+
1*
1M
1J
1I
0H
b1011111 <
#2270
0!
#2275
1!
b10011101 ?
#2280
0!
#2285
1!
b10011110 ?
1+
0L
0J
0I
b1000101 <
#2290
0!
#2295
1!
b10011111 ?
#2300
0!
#2305
1!
b10100000 ?
0+
0*
0)
0(
1'
0M
1J
1H
b1101100 <
#2310
0!
#2315
1!
b10100001 ?
#2320
0!
#2325
1!
b10100010 ?
1+
0J
b1100100 <
#2330
0!
#2335
1!
b10100011 ?
#2340
0!
#2345
1!
b10100100 ?
0+
1*
1M
1L
1J
b1101111 <
#2350
0!
#2355
1!
b10100101 ?
#2360
0!
#2365
1!
b10100110 ?
1+
0M
b1101110 <
#2370
0!
#2375
1!
b10100111 ?
#2380
0!
#2385
1!
b10101000 ?
0+
0*
1)
1M
1I
0H
b1011111 <
#2390
0!
#2395
1!
b10101001 ?
#2400
0!
#2405
1!
b10101010 ?
1+
0L
0K
0J
0I
1H
b1100001 <
#2410
0!
#2415
1!
b10101011 ?
#2420
0!
#2425
1!
b10101100 ?
0+
1*
0M
1L
1K
1J
b1101110 <
#2430
0!
#2435
1!
b10101101 ?
#2440
0!
#2445
1!
b10101110 ?
1+
0L
0J
b1100100 <
#2450
0!
#2455
1!
b10101111 ?
#2460
0!
#2465
1!
b10110000 ?
0+
0*
0)
1(
1M
1L
1J
1I
0H
b1011111 <
#2470
0!
#2475
1!
b10110001 ?
#2480
0!
#2485
1!
b10110010 ?
1+
0M
0L
0K
b1011000 <
#2490
0!
#2495
1!
b10110011 ?
#2500
0!
#2505
1!
b10110100 ?
0+
1*
1M
0I
1H
b1101001 <
#2510
0!
#2515
1!
b10110101 ?
#2520
0!
#2525
1!
b10110110 ?
1+
0M
1L
1K
b1101110 <
#2530
0!
#2535
1!
b10110111 ?
#2540
0!
#2545
1!
b10111000 ?
0+
0*
1)
1M
0L
0K
1I
b1111001 <
#2550
0!
#2555
1!
b10111001 ?
#2560
0!
#2565
1!
b10111010 ?
1+
1K
0J
b1110101 <
#2570
0!
#2575
1!
b10111011 ?
#2580
0!
#2585
1!
b10111100 ?
0+
1*
0I
b1100101 <
#2590
0!
#2595
1!
b10111101 ?
#2600
0!
#2605
1!
b10111110 ?
1+
1L
1J
1I
0H
b1011111 <
#2610
0!
#2615
1!
b10111111 ?
#2620
0!
#2625
1!
b11000000 ?
#2630
0!
#2635
1!
b11000001 ?
#2640
0!
#2645
1!
b11000010 ?
#2650
0!
#2655
1!
b11000011 ?
#2660
0!
#2665
1!
b11000100 ?
#2670
0!
#2675
1!
b11000101 ?
#2680
0!
#2685
1!
b11000110 ?
#2690
0!
#2695
1!
b11000111 ?
#2700
0!
#2705
1!
b11001000 ?
#2710
0!
#2715
1!
b11001001 ?
#2720
0!
#2725
1!
b11001010 ?
#2730
0!
#2735
1!
b11001011 ?
#2740
0!
#2745
1!
b11001100 ?
#2750
0!
#2755
1!
b11001101 ?
#2760
0!
#2765
1!
b11001110 ?
#2770
0!
#2775
1!
b11001111 ?
#2780
0!
#2785
1!
b11010000 ?
#2790
0!
#2795
1!
b11010001 ?
#2800
0!
#2805
1!
b11010010 ?
#2810
0!
#2815
1!
b11010011 ?
#2820
0!
#2825
1!
b11010100 ?
#2830
0!
#2835
1!
b11010101 ?
#2840
0!
#2845
1!
b11010110 ?
#2850
0!
#2855
1!
b11010111 ?
#2860
0!
#2865
1!
b11011000 ?
#2870
0!
#2875
1!
b11011001 ?
#2880
0!
#2885
1!
b11011010 ?
#2890
0!
#2895
1!
b11011011 ?
#2900
0!
#2905
1!
b11011100 ?
#2910
0!
#2915
1!
b11011101 ?
#2920
0!
#2925
1!
b11011110 ?
#2930
0!
#2935
1!
b11011111 ?
#2940
0!
#2945
1!
b11100000 ?
#2950
0!
#2955
1!
b11100001 ?
#2960
0!
#2965
1!
b11100010 ?
#2970
0!
#2975
1!
b11100011 ?
#2980
0!
#2985
1!
b11100100 ?
#2990
0!
#2995
1!
b11100101 ?
#3000
0!
#3005
1!
b11100110 ?
#3010
0!
#3015
1!
b11100111 ?
#3020
0!
#3025
1!
b11101000 ?
#3030
0!
#3035
1!
b11101001 ?
#3040
0!
#3045
1!
b11101010 ?
#3050
0!
#3055
1!
b11101011 ?
#3060
0!
#3065
1!
b11101100 ?
#3070
0!
#3075
1!
b11101101 ?
#3080
0!
#3085
1!
b11101110 ?
#3090
0!
#3095
1!
b11101111 ?
#3100
0!
#3105
1!
b11110000 ?
#3110
0!
#3115
1!
b11110001 ?
#3120
0!
#3125
1!
b11110010 ?
#3130
0!
#3135
1!
b11110011 ?
#3140
0!
#3145
1!
b11110100 ?
#3150
0!
#3155
1!
b11110101 ?
#3160
0!
#3165
1!
b11110110 ?
#3170
0!
#3175
1!
b11110111 ?
#3180
0!
#3185
1!
b11111000 ?
#3190
0!
#3195
1!
b11111001 ?
#3200
0!
#3205
1!
b11111010 ?
#3210
0!
#3215
1!
b11111011 ?
#3220
0!
#3225
1!
b11111100 ?
#3230
0!
#3235
1!
b11111101 ?
#3240
0!
#3245
1!
b11111110 ?
#3250
0!
